{
  "$schema": "https://downloads.aluma.io/schemas/project/v1/project-settings.json",
  "name": "OCR",
  "timeout": 600,
  "ocr_settings": {
    "mode": "enhanced-textract"
  },
  "triggers": [
    {
      "type": "file-system"
    }
  ],
  "exporters": [
    {
      "type": "file-system"
    }
  ],
  "validation_settings": {
    "enabled": "never"
  }
}